Label 'subpoint_map':
[0]: 9 (1)
[0]: 3 (0)
[0]: 4 (0)
[0]: 0 (102)
[0]: 8 (101)
[0]: 10 (101)
[0]: 1 (-102)
[0]: 12 (-101)
[0]: 14 (-101)
Mesh 'Parallel Mesh':
Max sizes cone: 4 support: 2
orientation is missing
cap --> base:
[0]: 1 ----> 5
[0]: 1 ----> 6
[0]: 2 ----> 6
[0]: 2 ----> 7
[0]: 3 ----> 5
[0]: 3 ----> 8
[0]: 4 ----> 7
[0]: 4 ----> 8
[0]: 5 ----> 0
[0]: 6 ----> 0
[0]: 7 ----> 0
[0]: 8 ----> 0
Max sizes cone: 4 support: 3
[1]: 2 ----> 8
[1]: 2 ----> 11
[1]: 3 ----> 8
[1]: 3 ----> 9
[1]: 3 ----> 13
[1]: 4 ----> 9
[1]: 4 ----> 10
[1]: 4 ----> 14
[1]: 5 ----> 10
[1]: 5 ----> 11
[1]: 6 ----> 12
[1]: 6 ----> 13
[1]: 7 ----> 12
[1]: 7 ----> 14
[1]: 8 ----> 0
[1]: 9 ----> 0
[1]: 9 ----> 1
[1]: 10 ----> 0
[1]: 11 ----> 0
[1]: 12 ----> 1
[1]: 13 ----> 1
[1]: 14 ----> 1
base <-- cap:
[0]: 0 <---- 5 (0)
[0]: 0 <---- 6 (0)
[0]: 0 <---- 7 (0)
[0]: 0 <---- 8 (-2)
[0]: 5 <---- 3 (0)
[0]: 5 <---- 1 (0)
[0]: 6 <---- 1 (0)
[0]: 6 <---- 2 (0)
[0]: 7 <---- 2 (0)
[0]: 7 <---- 4 (0)
[0]: 8 <---- 3 (0)
[0]: 8 <---- 4 (0)
[1]: 0 <---- 8 (0)
[1]: 0 <---- 9 (0)
[1]: 0 <---- 10 (0)
[1]: 0 <---- 11 (0)
[1]: 1 <---- 9 (0)
[1]: 1 <---- 12 (0)
[1]: 1 <---- 13 (0)
[1]: 1 <---- 14 (0)
[1]: 8 <---- 2 (0)
[1]: 8 <---- 3 (0)
[1]: 9 <---- 3 (0)
[1]: 9 <---- 4 (0)
[1]: 10 <---- 4 (0)
[1]: 10 <---- 5 (0)
[1]: 11 <---- 5 (0)
[1]: 11 <---- 2 (0)
[1]: 12 <---- 6 (0)
[1]: 12 <---- 7 (0)
[1]: 13 <---- 3 (0)
[1]: 13 <---- 6 (0)
[1]: 14 <---- 4 (0)
[1]: 14 <---- 7 (0)
coordinates with 1 fields
  field 0 with 2 components
Process 0:
  (   1) dim  2 offset   0 0.5 0
  (   2) dim  2 offset   2 0.5 1
  (   3) dim  2 offset   4 0 0
  (   4) dim  2 offset   6 0 1
Process 1:
  (   2) dim  2 offset   0 -0.5 0
  (   3) dim  2 offset   2 0 0
  (   4) dim  2 offset   4 0 1
  (   5) dim  2 offset   6 -0.5 1
  (   6) dim  2 offset   8 0 0
  (   7) dim  2 offset  10 0 1
Label 'marker':
[0]: 1 (1)
[0]: 2 (1)
[0]: 3 (1)
[0]: 4 (1)
[0]: 5 (1)
[0]: 6 (1)
[0]: 7 (1)
[1]: 2 (1)
[1]: 3 (1)
[1]: 4 (1)
[1]: 5 (1)
[1]: 6 (1)
[1]: 7 (1)
[1]: 8 (1)
[1]: 10 (1)
[1]: 11 (1)
[1]: 13 (1)
[1]: 14 (1)
PetscSF Object: 2 MPI processes
  type: basic
    sort=rank-order
  [0] Number of roots=9, leaves=3, remote ranks=1
  [0] 3 <- (1,6)
  [0] 4 <- (1,7)
  [0] 8 <- (1,12)
  [1] Number of roots=15, leaves=0, remote ranks=0
  [0] Roots referenced by my leaves, by rank
  [0] 1: 3 edges
  [0]    3 <- 6
  [0]    4 <- 7
  [0]    8 <- 12
  [1] Roots referenced by my leaves, by rank
Mesh 'Hybrid Mesh':
Max sizes cone: 4 support: 2
orientation is missing
cap --> base:
[0]: 1 ----> 5
[0]: 1 ----> 6
[0]: 2 ----> 6
[0]: 2 ----> 7
[0]: 3 ----> 5
[0]: 3 ----> 8
[0]: 4 ----> 7
[0]: 4 ----> 8
[0]: 5 ----> 0
[0]: 6 ----> 0
[0]: 7 ----> 0
[0]: 8 ----> 0
Max sizes cone: 4 support: 3
[1]: 2 ----> 8
[1]: 2 ----> 11
[1]: 3 ----> 8
[1]: 3 ----> 9
[1]: 3 ----> 13
[1]: 4 ----> 9
[1]: 4 ----> 10
[1]: 4 ----> 14
[1]: 5 ----> 10
[1]: 5 ----> 11
[1]: 6 ----> 12
[1]: 6 ----> 13
[1]: 7 ----> 12
[1]: 7 ----> 14
[1]: 8 ----> 0
[1]: 9 ----> 0
[1]: 9 ----> 1
[1]: 10 ----> 0
[1]: 11 ----> 0
[1]: 12 ----> 1
[1]: 13 ----> 1
[1]: 14 ----> 1
base <-- cap:
[0]: 0 <---- 5 (0)
[0]: 0 <---- 6 (0)
[0]: 0 <---- 7 (0)
[0]: 0 <---- 8 (-2)
[0]: 5 <---- 3 (0)
[0]: 5 <---- 1 (0)
[0]: 6 <---- 1 (0)
[0]: 6 <---- 2 (0)
[0]: 7 <---- 2 (0)
[0]: 7 <---- 4 (0)
[0]: 8 <---- 3 (0)
[0]: 8 <---- 4 (0)
[1]: 0 <---- 8 (0)
[1]: 0 <---- 9 (0)
[1]: 0 <---- 10 (0)
[1]: 0 <---- 11 (0)
[1]: 1 <---- 9 (0)
[1]: 1 <---- 12 (0)
[1]: 1 <---- 13 (0)
[1]: 1 <---- 14 (0)
[1]: 8 <---- 2 (0)
[1]: 8 <---- 3 (0)
[1]: 9 <---- 3 (0)
[1]: 9 <---- 4 (0)
[1]: 10 <---- 4 (0)
[1]: 10 <---- 5 (0)
[1]: 11 <---- 5 (0)
[1]: 11 <---- 2 (0)
[1]: 12 <---- 6 (0)
[1]: 12 <---- 7 (0)
[1]: 13 <---- 3 (0)
[1]: 13 <---- 6 (0)
[1]: 14 <---- 4 (0)
[1]: 14 <---- 7 (0)
coordinates with 1 fields
  field 0 with 2 components
Process 0:
  (   1) dim  2 offset   0 0.5 0
  (   2) dim  2 offset   2 0.5 1
  (   3) dim  2 offset   4 0 0
  (   4) dim  2 offset   6 0 1
Process 1:
  (   2) dim  2 offset   0 -0.5 0
  (   3) dim  2 offset   2 0 0
  (   4) dim  2 offset   4 0 1
  (   5) dim  2 offset   6 -0.5 1
  (   6) dim  2 offset   8 0 0
  (   7) dim  2 offset  10 0 1
Label 'marker':
[0]: 1 (1)
[0]: 2 (1)
[0]: 3 (1)
[0]: 4 (1)
[0]: 5 (1)
[0]: 6 (1)
[0]: 7 (1)
[1]: 2 (1)
[1]: 3 (1)
[1]: 4 (1)
[1]: 5 (1)
[1]: 6 (1)
[1]: 7 (1)
[1]: 8 (1)
[1]: 10 (1)
[1]: 11 (1)
[1]: 13 (1)
[1]: 14 (1)
PetscSF Object: 2 MPI processes
  type: basic
    sort=rank-order
  [0] Number of roots=9, leaves=3, remote ranks=1
  [0] 3 <- (1,6)
  [0] 4 <- (1,7)
  [0] 8 <- (1,12)
  [1] Number of roots=15, leaves=0, remote ranks=0
  [0] Roots referenced by my leaves, by rank
  [0] 1: 3 edges
  [0]    3 <- 6
  [0]    4 <- 7
  [0]    8 <- 12
  [1] Roots referenced by my leaves, by rank
