Mesh in 3 dimensions:
  0-cells: 27
  3-cells: 48
Labels:
  marker: 1 strata of sizes (26)
  depth: 2 strata of sizes (27, 48)
Residual:
Vec Object: 1 MPI processes
  type: seq
-0.0833333
-0.0833333
0
0.0416667
0.0416667
0
0.0416667
0.0416667
0
0.25
0.25
0
-0.0833333
-0.0833333
0
0.0416667
0.0416667
0
0.0416667
0.0416667
0
0.25
0.25
0
0.0208333
0.0833333
0
0.0416667
0.0416667
0
0.25
0.25
0
0.0208333
0.0833333
0
-0.0833333
-0.0833333
0
-0.145833
-0.0833333
0
-0.145833
-0.0833333
0
0.0416667
0.0416667
0
-0.0833333
-0.145833
0
0.0833333
0.0208333
0
-0.0833333
-0.145833
0
0.0833333
0.0208333
0
-0.333333
-0.208333
0
-0.125
-0.125
0
0.458333
0.333333
0
-0.208333
-0.333333
0
-0.125
-0.125
0
0.333333
0.458333
0
-0.5
-0.5
0
