Nonlinear solve converged due to CONVERGED_FNORM_RELATIVE iterations 1
SNES Object: 3 MPI processes
  type: newtonls
  maximum iterations=50, maximum function evaluations=10000
  tolerances: relative=1e-08, absolute=1e-50, solution=1e-08
  total number of linear solver iterations=12
  total number of function evaluations=2
  SNESLineSearch Object:   3 MPI processes
    type: bt
      interpolation: cubic
      alpha=1.000000e-04
    maxstep=1.000000e+08, minlambda=1.000000e-12
    tolerances: relative=1.000000e-08, absolute=1.000000e-15, lambda=1.000000e-08
    maximum iterations=40
  KSP Object:   3 MPI processes
    type: gmres
      GMRES: restart=30, using Classical (unmodified) Gram-Schmidt Orthogonalization with no iterative refinement
      GMRES: happy breakdown tolerance 1e-30
    maximum iterations=10000, initial guess is zero
    tolerances:  relative=1e-09, absolute=1e-50, divergence=10000
    left preconditioning
    has attached null space
    using PRECONDITIONED norm type for convergence test
  PC Object:   3 MPI processes
    type: jacobi
    linear system matrix = precond matrix:
    Mat Object:     3 MPI processes
      type: mpiaij
      rows=23, cols=23
      total: nonzeros=237, allocated nonzeros=237
      total number of mallocs used during MatSetValues calls =0
        using I-node (on process 0) routines: found 1 nodes, limit used is 5
Number of SNES iterations = 1
L_2 Error: 0.54
Solution
Vec Object: 3 MPI processes
  type: mpi
Process [0]
0
0.125
0.125
-1.5
Process [1]
1.5
3
1.5
0
0.625
0.875
-3
Process [2]
-1.5
0.5
0
0
-3
-1.5
0.625
-0.125
3
1.125
0.125
1.5
