Local function
Vec Object: 1 MPI processes
  type: seq
0
0
0
-1.5
1
0
1
-0.5
1
1
1
-0.5
2
1
2
0.5
0
1
0
-0.5
1
1
-1
0.5
1
2
-1
0.5
2
2
-2
1.5
1.25
1
1.25
0
1
1.25
0
0
2
1.25
0
1
1.25
2
-1.75
1
0
0.25
0
-1
0.25
0
0.25
-1
0.25
1
-0.75
0
1
0.25
0
0
0.25
0.25
0.25
-1
1.25
0.25
1.25
0
0.25
1.25
-0.75
0
1.25
1.25
-1.75
1
0.25
0.25
-0.25
-0.5
0.5
1.25
-1.5
0.5
1.25
0.5
-0.25
0.5
0.25
0.5
-0.25
-0.5
0.5
0.25
0.5
-0.5
1.25
1.25
-0.25
0.5
0.5
0.5
-0.5
0
Initial guess
Vec Object: 1 MPI processes
  type: seq
-1.5
-0.5
-0.5
0.5
-0.5
0.5
0.5
1.5
0
0
1
1
-1
-1
0
0
-1
0
0
1
-0.5
0.5
0.5
-0.5
-0.5
0.5
0.5
0.5
-0.5
0
L_2 Error: 0.196403
Residual:
Vec Object: 1 MPI processes
  type: seq
0
0
0
0
0
0
0
0
0
0
0
0
0
0
0
0
0
0
0
0
0
0
0
0
0
0
0
0
0
0
0
0
0
0
0
0
0
0
0
0
0
0
0
0.0208333
0
0
0
0
0
0
0
-0.0208333
0
0
0
0
0
0
0
0
0
0
0
0
0
0
0
0
0
0
0
0
0
0
0
0
0
0
0
0
0
0
0
-0.0208333
0
0
0
0
0
0
0
0.0208333
0
0
0
-0.0208333
0
0
0
0
0
0
0
0.0208333
-0.166667
-0.166667
-0.166667
0
Initial Residual
Vec Object: 1 MPI processes
  type: seq
0
0
0
0
0
0
0
0
0
0
0.0208333
0
-0.0208333
0
0
0
0
0
0
0
-0.0208333
0
0.0208333
-0.0208333
0
0.0208333
-0.166667
-0.166667
-0.166667
0
L_2 Residual: 0.293151
Jacobian:
Mat Object: 1 MPI processes
  type: seqaij
row 0: (0, 0)  (12, 0)  (13, 0)  (16, 0)  (20, 0)  (23, 0)  (24, 0)  (26, -0.0208333)  (27, -0.0208333)  (28, -0.0208333)  (29, 0) 
row 1: (1, 0)  (13, 0)  (15, 0)  (17, 0)  (20, 0)  (22, 0)  (24, 0)  (26, 0.0208333)  (27, -0.0208333)  (28, -0.0208333)  (29, 0) 
row 2: (2, 0)  (8, 0)  (9, 0)  (16, 0)  (23, 0)  (24, 0)  (25, 0)  (26, -0.0208333)  (27, 0.0208333)  (28, -0.0208333)  (29, 0) 
row 3: (3, 0)  (8, 0)  (10, 0)  (17, 0)  (22, 0)  (24, 0)  (25, 0)  (26, 0.0208333)  (27, 0.0208333)  (28, -0.0208333)  (29, 0) 
row 4: (4, 0)  (12, 0)  (14, 0)  (18, 0)  (20, 0)  (21, 0)  (23, 0)  (26, -0.0208333)  (27, -0.0208333)  (28, 0.0208333)  (29, 0) 
row 5: (5, 0)  (14, 0)  (15, 0)  (19, 0)  (20, 0)  (21, 0)  (22, 0)  (26, 0.0208333)  (27, -0.0208333)  (28, 0.0208333)  (29, 0) 
row 6: (6, 0)  (9, 0)  (11, 0)  (18, 0)  (21, 0)  (23, 0)  (25, 0)  (26, -0.0208333)  (27, 0.0208333)  (28, 0.0208333)  (29, 0) 
row 7: (7, 0)  (10, 0)  (11, 0)  (19, 0)  (21, 0)  (22, 0)  (25, 0)  (26, 0.0208333)  (27, 0.0208333)  (28, 0.0208333)  (29, 0) 
row 8: (2, 0)  (3, 0)  (8, 0)  (24, 0)  (25, 0)  (26, 0)  (27, 0.0208333)  (28, -0.0208333)  (29, 0) 
row 9: (2, 0)  (6, 0)  (9, 0)  (23, 0)  (25, 0)  (26, -0.0208333)  (27, 0.0208333)  (28, 0)  (29, 0) 
row 10: (3, 0)  (7, 0)  (10, 0)  (22, 0)  (25, 0)  (26, 0.0208333)  (27, 0.0208333)  (28, 0)  (29, 0) 
row 11: (6, 0)  (7, 0)  (11, 0)  (21, 0)  (25, 0)  (26, 0)  (27, 0.0208333)  (28, 0.0208333)  (29, 0) 
row 12: (0, 0)  (4, 0)  (12, 0)  (20, 0)  (23, 0)  (26, -0.0208333)  (27, -0.0208333)  (28, 0)  (29, 0) 
row 13: (0, 0)  (1, 0)  (13, 0)  (20, 0)  (24, 0)  (26, 0)  (27, -0.0208333)  (28, -0.0208333)  (29, 0) 
row 14: (4, 0)  (5, 0)  (14, 0)  (20, 0)  (21, 0)  (26, 0)  (27, -0.0208333)  (28, 0.0208333)  (29, 0) 
row 15: (1, 0)  (5, 0)  (15, 0)  (20, 0)  (22, 0)  (26, 0.0208333)  (27, -0.0208333)  (28, 0)  (29, 0) 
row 16: (0, 0)  (2, 0)  (16, 0)  (23, 0)  (24, 0)  (26, -0.0208333)  (27, 0)  (28, -0.0208333)  (29, 0) 
row 17: (1, 0)  (3, 0)  (17, 0)  (22, 0)  (24, 0)  (26, 0.0208333)  (27, 0)  (28, -0.0208333)  (29, 0) 
row 18: (4, 0)  (6, 0)  (18, 0)  (21, 0)  (23, 0)  (26, -0.0208333)  (27, 0)  (28, 0.0208333)  (29, 0) 
row 19: (5, 0)  (7, 0)  (19, 0)  (21, 0)  (22, 0)  (26, 0.0208333)  (27, 0)  (28, 0.0208333)  (29, 0) 
row 20: (0, 0)  (1, 0)  (4, 0)  (5, 0)  (12, 0)  (13, 0)  (14, 0)  (15, 0)  (20, 0)  (26, 0)  (27, -0.0833333)  (28, 0)  (29, 0) 
row 21: (4, 0)  (5, 0)  (6, 0)  (7, 0)  (11, 0)  (14, 0)  (18, 0)  (19, 0)  (21, 0)  (26, 0)  (27, 0)  (28, 0.0833333)  (29, 0) 
row 22: (1, 0)  (3, 0)  (5, 0)  (7, 0)  (10, 0)  (15, 0)  (17, 0)  (19, 0)  (22, 0)  (26, 0.0833333)  (27, 0)  (28, 0)  (29, 0) 
row 23: (0, 0)  (2, 0)  (4, 0)  (6, 0)  (9, 0)  (12, 0)  (16, 0)  (18, 0)  (23, 0)  (26, -0.0833333)  (27, 0)  (28, 0)  (29, 0) 
row 24: (0, 0)  (1, 0)  (2, 0)  (3, 0)  (8, 0)  (13, 0)  (16, 0)  (17, 0)  (24, 0)  (26, 0)  (27, 0)  (28, -0.0833333)  (29, 0) 
row 25: (2, 0)  (3, 0)  (6, 0)  (7, 0)  (8, 0)  (9, 0)  (10, 0)  (11, 0)  (25, 0)  (26, 0)  (27, 0.0833333)  (28, 0)  (29, 0) 
row 26: (0, 0.0208333)  (1, -0.0208333)  (2, 0.0208333)  (3, -0.0208333)  (4, 0.0208333)  (5, -0.0208333)  (6, 0.0208333)  (7, -0.0208333)  (8, 0)  (9, 0.0208333)  (10, -0.0208333)  (11, 0)  (12, 0.0208333)  (13, 0)  (14, 0)  (15, -0.0208333)  (16, 0.0208333)  (17, -0.0208333)  (18, 0.0208333)  (19, -0.0208333)  (20, 0)  (21, 0)  (22, -0.0833333)  (23, 0.0833333)  (24, 0)  (25, 0)  (26, 4)  (27, 0)  (28, 0)  (29, 0) 
row 27: (0, 0.0208333)  (1, 0.0208333)  (2, -0.0208333)  (3, -0.0208333)  (4, 0.0208333)  (5, 0.0208333)  (6, -0.0208333)  (7, -0.0208333)  (8, -0.0208333)  (9, -0.0208333)  (10, -0.0208333)  (11, -0.0208333)  (12, 0.0208333)  (13, 0.0208333)  (14, 0.0208333)  (15, 0.0208333)  (16, 0)  (17, 0)  (18, 0)  (19, 0)  (20, 0.0833333)  (21, 0)  (22, 0)  (23, 0)  (24, 0)  (25, -0.0833333)  (26, 0)  (27, 4)  (28, 0)  (29, 0) 
row 28: (0, 0.0208333)  (1, 0.0208333)  (2, 0.0208333)  (3, 0.0208333)  (4, -0.0208333)  (5, -0.0208333)  (6, -0.0208333)  (7, -0.0208333)  (8, 0.0208333)  (9, 0)  (10, 0)  (11, -0.0208333)  (12, 0)  (13, 0.0208333)  (14, -0.0208333)  (15, 0)  (16, 0.0208333)  (17, 0.0208333)  (18, -0.0208333)  (19, -0.0208333)  (20, 0)  (21, -0.0833333)  (22, 0)  (23, 0)  (24, 0.0833333)  (25, 0)  (26, 0)  (27, 0)  (28, 4)  (29, 0) 
row 29: (0, 0)  (1, 0)  (2, 0)  (3, 0)  (4, 0)  (5, 0)  (6, 0)  (7, 0)  (8, 0)  (9, 0)  (10, 0)  (11, 0)  (12, 0)  (13, 0)  (14, 0)  (15, 0)  (16, 0)  (17, 0)  (18, 0)  (19, 0)  (20, 0)  (21, 0)  (22, 0)  (23, 0)  (24, 0)  (25, 0)  (26, 0)  (27, 0)  (28, 0)  (29, 0) 
Residual:
Vec Object: 1 MPI processes
  type: seq
0
0
0
0.0104167
0
0
0
-0.0104167
0
0
0
-0.0104167
0
0
0
-0.03125
0
0
0
0.03125
0
0
0
0.0104167
0
0
0
0.0104167
0
0
0
-0.0104167
0
0
0
-0.0208333
0
0
0
0
0
0
0
0
0
0
0
0
0
0
0
0
0
0
0
0
0
0
0
0.0208333
0
0
0
0
0
0
0
0
0
0
0
-0.0208333
0
0
0
0.0208333
0
0
0
0
0
0
0
0.0208333
0
0
0
0.0416667
0
0
0
-0.0208333
0
0
0
0.0208333
0
0
0
-0.0416667
0
0
0
-0.0208333
-1.91667
-1.91667
2.08333
0
Au - b = Au + F(0)
Vec Object: 1 MPI processes
  type: seq
0
0
0
0
0
0
0
0
0
0
0.0208333
0
-0.0208333
0
0
0
0
0
0
0
-0.0208333
0
0.0208333
-0.0208333
0
0.0208333
-0.166667
-0.166667
-0.166667
0
Linear L_2 Residual: 0.293151
